Linear Model – Lab
…
Load Fama-French factors.

FF_factor <- read_csv("data/FF_3Factors_US_monthly.csv")
FF_factor <- FF_factor %>% mutate_at(vars(-Date), ~./100)
FF_factor <- FF_factor %>% 
    mutate(year=year(Date),
           mon=month(Date))

FF_factor

## # A tibble: 294 × 7
##    Date       `Mkt-RF`     SMB     HML     RF  year   mon
##    <date>        <dbl>   <dbl>   <dbl>  <dbl> <dbl> <dbl>
##  1 2000-01-01  -0.0474  0.0577 -0.0188 0.0041  2000     1
##  2 2000-02-01   0.0245  0.2136 -0.0959 0.0043  2000     2
##  3 2000-03-01   0.052  -0.172   0.0813 0.0047  2000     3
##  4 2000-04-01  -0.064  -0.0668  0.0726 0.0046  2000     4
##  5 2000-05-01  -0.0442 -0.0605  0.0475 0.005   2000     5
##  6 2000-06-01   0.0464  0.1284 -0.0842 0.004   2000     6
##  7 2000-07-01  -0.0251 -0.0307  0.0831 0.0048  2000     7
##  8 2000-08-01   0.0703 -0.0061 -0.0139 0.005   2000     8
##  9 2000-09-01  -0.0545 -0.0182  0.0717 0.0051  2000     9
## 10 2000-10-01  -0.0276 -0.0388  0.0571 0.0056  2000    10
## # ℹ 284 more rows
…
