Linear Regression Model – Lecture
…
Run the regression.

# define group to be a categorical covariate (factor)
bonedensity <- bonedensity %>% mutate(group = factor(group))
bonedensity

## # A tibble: 30 × 2
##    density group
##      <dbl> <fct>
##  1   0.228 1    
##  2   0.207 1    
##  3   0.234 1    
##  4   0.22  1    
##  5   0.217 1    
##  6   0.228 1    
##  7   0.209 1    
##  8   0.221 1    
##  9   0.204 1    
## 10   0.22  1    
## # ℹ 20 more rows
…
\((\mu_{11} - \mu_{01}) - (\mu_{10} - \mu_{00})\) stands for difference between the effects of sex on expected earnings among married and non-married wage earners.

Back to our CPS earning regression example.

# prepare the dataset
cps_data <- read_csv("https://raw.githubusercontent.com/my1396/course_dataset/refs/heads/main/cps09mar.csv")
cps_data <- cps_data %>% 
    mutate(wage =  earnings/(hours*week),
           lwage = log(wage), 
           female = factor(female),
           married = ifelse(marital<4, 1, 0) %>% factor()
           )
cps_data %>% select(lwage, female, married)

## # A tibble: 50,742 × 3
##       lwage female married
##       <dbl> <fct>  <fct>  
##  1 4.133456 0      1      
##  2 3.061872 0      1      
##  3 2.752786 0      1      
##  4 3.117780 1      1      
##  5 4.129148 0      1      
##  6 2.764140 1      0      
##  7 2.783240 0      1      
##  8 2.783240 1      1      
##  9 3.649659 0      1      
## 10 2.733368 1      1      
## # ℹ 50,732 more rows
…
